<?xml version="1.0" encoding="UTF-8"?>
<CustomTab xmlns="http://soap.sforce.com/2006/04/metadata">
    <label>Manage Tasks</label>
    <mobileReady>false</mobileReady>
    <motif>Custom71: Headset</motif>
    <page>ManageTasks</page>
</CustomTab>
